<?xml version="1.0" standalone="no"?>
<!DOCTYPE svg PUBLIC "-//W3C//DTD SVG 1.1//EN" "http://www.w3.org/Graphics/SVG/1.1/DTD/svg11.dtd">
<svg xmlns="http://www.w3.org/2000/svg">
<metadata>Copyright (C) 2017 by original authors @ fontello.com</metadata>
<defs>
<font id="fontello" horiz-adv-x="1000" >
<font-face font-family="fontello" font-weight="400" font-stretch="normal" units-per-em="1000" ascent="850" descent="-150" />
<missing-glyph horiz-adv-x="1000" />
<glyph glyph-name="user" unicode="&#xe800;" d="M714 69q0-60-35-104t-84-44h-476q-49 0-84 44t-35 104q0 48 5 90t17 85 33 73 52 50 76 19q73-72 174-72t175 72q42 0 75-19t52-50 33-73 18-85 4-90z m-143 495q0-88-62-151t-152-63-151 63-63 151 63 152 151 63 152-63 62-152z" horiz-adv-x="714.3" />

<glyph glyph-name="users" unicode="&#xe801;" d="M331 350q-90-3-148-71h-75q-45 0-77 22t-31 66q0 197 69 197 4 0 25-11t54-24 66-12q38 0 75 13-3-21-3-37 0-78 45-143z m598-356q0-66-41-105t-108-39h-488q-68 0-108 39t-41 105q0 30 2 58t8 61 14 61 24 54 35 45 48 30 62 11q6 0 24-12t41-26 59-27 76-12 75 12 60 27 41 26 24 12q34 0 62-11t47-30 35-45 24-54 15-61 8-61 2-58z m-572 713q0-59-42-101t-101-42-101 42-42 101 42 101 101 42 101-42 42-101z m393-214q0-89-63-152t-151-62-152 62-63 152 63 151 152 63 151-63 63-151z m321-126q0-43-31-66t-77-22h-75q-57 68-147 71 45 65 45 143 0 16-3 37 37-13 74-13 33 0 67 12t54 24 24 11q69 0 69-197z m-71 340q0-59-42-101t-101-42-101 42-42 101 42 101 101 42 101-42 42-101z" horiz-adv-x="1071.4" />

<glyph glyph-name="eye" unicode="&#xe802;" d="M929 314q-85 132-213 197 34-58 34-125 0-103-73-177t-177-73-177 73-73 177q0 67 34 125-128-65-213-197 75-114 187-182t242-68 243 68 186 182z m-402 215q0 11-8 19t-19 7q-70 0-120-50t-50-119q0-11 8-19t19-8 19 8 8 19q0 48 34 82t82 34q11 0 19 8t8 19z m473-215q0-19-11-38-78-129-210-206t-279-77-279 77-210 206q-11 19-11 38t11 39q78 128 210 205t279 78 279-78 210-205q11-20 11-39z" horiz-adv-x="1000" />

<glyph glyph-name="chat" unicode="&#xe803;" d="M786 421q0-77-53-143t-143-104-197-38q-48 0-98 9-70-49-155-72-21-5-48-9h-2q-6 0-12 5t-6 12q-1 1-1 3t1 4 1 3l1 3t2 3 2 3 3 3 2 2q3 3 13 14t15 16 12 17 14 21 11 25q-69 40-108 98t-40 125q0 78 53 144t143 104 197 38 197-38 143-104 53-144z m214-142q0-67-40-126t-108-98q5-14 11-25t14-21 13-16 14-17 13-14q0 0 2-2t3-3 2-3 2-3l1-3t1-3 1-4-1-3q-2-8-7-13t-12-4q-28 4-48 9-86 23-156 72-50-9-98-9-151 0-263 74 32-3 49-3 90 0 172 25t148 72q69 52 107 119t37 141q0 43-13 85 72-39 114-99t42-128z" horiz-adv-x="1000" />

<glyph glyph-name="attention" unicode="&#xe804;" d="M571 83v106q0 8-5 13t-12 5h-108q-7 0-12-5t-5-13v-106q0-8 5-13t12-6h108q7 0 12 6t5 13z m-1 208l10 257q0 6-5 10-7 6-14 6h-122q-6 0-14-6-5-4-5-12l9-255q0-5 6-9t13-3h103q8 0 14 3t5 9z m-7 522l428-786q20-35-1-70-9-17-26-26t-35-10h-858q-18 0-35 10t-26 26q-21 35-1 70l429 786q9 17 26 27t36 10 36-10 27-27z" horiz-adv-x="1000" />

<glyph glyph-name="login" unicode="&#xe805;" d="M661 350q0-14-11-25l-303-304q-11-10-26-10t-25 10-10 25v161h-250q-15 0-25 11t-11 25v214q0 15 11 25t25 11h250v161q0 14 10 25t25 10 26-10l303-304q11-10 11-25z m196 196v-392q0-67-47-114t-114-47h-178q-7 0-13 5t-5 13q0 2-1 11t0 15 2 13 5 11 12 3h178q37 0 64 27t26 63v392q0 37-26 64t-64 26h-174t-6 0-6 2-5 3-4 5-1 8q0 2-1 11t0 15 2 13 5 11 12 3h178q67 0 114-47t47-114z" horiz-adv-x="857.1" />

<glyph glyph-name="logout" unicode="&#xe806;" d="M357 46q0-2 1-11t0-14-2-14-5-11-12-3h-178q-67 0-114 47t-47 114v392q0 67 47 114t114 47h178q8 0 13-5t5-13q0-2 1-11t0-15-2-13-5-11-12-3h-178q-37 0-63-26t-27-64v-392q0-37 27-63t63-27h174t6 0 7-2 4-3 4-5 1-8z m518 304q0-14-11-25l-303-304q-11-10-25-10t-25 10-11 25v161h-250q-14 0-25 11t-11 25v214q0 15 11 25t25 11h250v161q0 14 11 25t25 10 25-10l303-304q11-10 11-25z" horiz-adv-x="928.6" />

<glyph glyph-name="clock" unicode="&#xe807;" d="M500 546v-250q0-7-5-12t-13-5h-178q-8 0-13 5t-5 12v36q0 8 5 13t13 5h125v196q0 8 5 13t12 5h36q8 0 13-5t5-13z m232-196q0 83-41 152t-110 111-152 41-153-41-110-111-41-152 41-152 110-111 153-41 152 41 110 111 41 152z m125 0q0-117-57-215t-156-156-215-58-216 58-155 156-58 215 58 215 155 156 216 58 215-58 156-156 57-215z" horiz-adv-x="857.1" />

<glyph glyph-name="volume-up" unicode="&#xe808;" d="M429 654v-608q0-14-11-25t-25-10-25 10l-186 186h-146q-15 0-25 11t-11 25v214q0 15 11 25t25 11h146l186 186q10 10 25 10t25-10 11-25z m214-304q0-42-24-79t-63-52q-5-3-14-3-14 0-25 10t-10 26q0 12 6 20t17 14 19 12 16 21 6 31-6 32-16 20-19 13-17 13-6 20q0 15 10 26t25 10q9 0 14-3 39-15 63-52t24-79z m143 0q0-85-48-158t-125-105q-7-3-14-3-15 0-26 11t-10 25q0 22 21 33 32 16 43 25 41 30 64 75t23 97-23 97-64 75q-11 9-43 25-21 11-21 33 0 14 10 25t25 11q8 0 15-3 78-33 125-105t48-158z m143 0q0-128-71-236t-189-158q-7-3-14-3-15 0-25 11t-11 25q0 20 22 33 4 2 12 6t13 6q25 14 46 28 68 51 107 127t38 161-38 161-107 127q-21 15-46 28-4 3-13 6t-12 6q-22 13-22 33 0 15 11 25t25 11q7 0 14-3 118-51 189-158t71-236z" horiz-adv-x="928.6" />

<glyph glyph-name="block" unicode="&#xe809;" d="M732 352q0 90-48 164l-421-420q76-50 166-50 62 0 118 25t96 65 65 97 24 119z m-557-167l421 421q-75 50-167 50-83 0-153-40t-110-111-41-153q0-91 50-167z m682 167q0-88-34-168t-91-137-137-92-166-34-167 34-137 92-91 137-34 168 34 167 91 137 137 91 167 34 166-34 137-91 91-137 34-167z" horiz-adv-x="857.1" />

<glyph glyph-name="arrows-cw" unicode="&#xe80a;" d="M843 261q0-3 0-4-36-150-150-243t-267-93q-81 0-157 31t-136 88l-72-72q-11-11-25-11t-25 11-11 25v250q0 14 11 25t25 11h250q14 0 25-11t10-25-10-25l-77-77q40-36 90-57t105-20q74 0 139 37t104 99q6 10 30 66 4 13 16 13h107q8 0 13-6t5-12z m14 446v-250q0-14-10-25t-26-11h-250q-14 0-25 11t-10 25 10 25l77 77q-82 77-194 77-75 0-140-37t-104-99q-6-10-29-66-5-13-17-13h-111q-7 0-13 6t-5 12v4q36 150 151 243t268 93q81 0 158-31t137-88l72 72q11 11 25 11t26-11 10-25z" horiz-adv-x="857.1" />

<glyph glyph-name="search" unicode="&#xe80b;" d="M643 386q0 103-73 176t-177 74-177-74-73-176 73-177 177-73 177 73 73 177z m286-465q0-29-22-50t-50-21q-30 0-50 21l-191 191q-100-69-223-69-80 0-153 31t-125 84-84 125-31 153 31 152 84 126 125 84 153 31 153-31 125-84 84-126 31-152q0-123-69-223l191-191q21-21 21-51z" horiz-adv-x="928.6" />

<glyph glyph-name="picture" unicode="&#xe80c;" d="M357 529q0-45-31-76t-76-32-76 32-31 76 31 76 76 31 76-31 31-76z m572-215v-250h-786v107l178 179 90-89 285 285z m53 393h-893q-7 0-12-5t-6-13v-678q0-7 6-13t12-5h893q7 0 13 5t5 13v678q0 8-5 13t-13 5z m89-18v-678q0-37-26-63t-63-27h-893q-36 0-63 27t-26 63v678q0 37 26 63t63 27h893q37 0 63-27t26-63z" horiz-adv-x="1071.4" />

<glyph glyph-name="edit" unicode="&#xe80d;" d="M496 189l64 65-85 85-64-65v-31h53v-54h32z m245 402q-9 9-18 0l-196-196q-9-9 0-18t18 0l196 196q9 9 0 18z m45-331v-106q0-67-47-114t-114-47h-464q-67 0-114 47t-47 114v464q0 66 47 113t114 48h464q35 0 65-14 9-4 10-13 2-10-5-16l-27-28q-8-8-18-4-13 3-25 3h-464q-37 0-63-26t-27-63v-464q0-37 27-63t63-27h464q37 0 63 27t26 63v70q0 7 5 12l36 36q8 8 20 4t11-16z m-54 411l161-160-375-375h-161v160z m248-73l-51-52-161 161 51 52q16 15 38 15t38-15l85-85q16-16 16-38t-16-38z" horiz-adv-x="1000" />

<glyph glyph-name="pencil" unicode="&#xe80e;" d="M203-7l50 51-131 131-51-51v-60h72v-71h60z m291 518q0 12-12 12-5 0-9-4l-303-302q-4-4-4-10 0-12 13-12 5 0 9 4l303 302q3 4 3 10z m-30 107l232-232-464-465h-232v233z m381-54q0-29-20-50l-93-93-232 233 93 92q20 21 50 21 29 0 51-21l131-131q20-22 20-51z" horiz-adv-x="857.1" />

<glyph glyph-name="calendar" unicode="&#xe80f;" d="M71-79h161v161h-161v-161z m197 0h178v161h-178v-161z m-197 197h161v178h-161v-178z m197 0h178v178h-178v-178z m-197 214h161v161h-161v-161z m411-411h179v161h-179v-161z m-214 411h178v161h-178v-161z m428-411h161v161h-161v-161z m-214 197h179v178h-179v-178z m-196 482v161q0 7-6 12t-12 6h-36q-7 0-12-6t-6-12v-161q0-7 6-13t12-5h36q7 0 12 5t6 13z m410-482h161v178h-161v-178z m-214 214h179v161h-179v-161z m214 0h161v161h-161v-161z m18 268v161q0 7-5 12t-13 6h-35q-7 0-13-6t-5-12v-161q0-7 5-13t13-5h35q8 0 13 5t5 13z m215 36v-715q0-29-22-50t-50-21h-786q-29 0-50 21t-21 50v715q0 29 21 50t50 21h72v54q0 37 26 63t63 26h36q37 0 63-26t26-63v-54h214v54q0 37 27 63t63 26h35q37 0 64-26t26-63v-54h71q29 0 50-21t22-50z" horiz-adv-x="928.6" />

<glyph glyph-name="off" unicode="&#xe810;" d="M857 350q0-87-34-166t-91-137-137-92-166-34-167 34-136 92-92 137-34 166q0 102 45 191t126 151q24 18 54 14t46-28q18-23 14-53t-28-47q-54-41-84-101t-30-127q0-58 23-111t61-91 91-61 111-23 110 23 92 61 61 91 22 111q0 68-30 127t-84 101q-23 18-28 47t14 53q17 24 47 28t53-14q81-61 126-151t45-191z m-357 429v-358q0-29-21-50t-50-21-51 21-21 50v358q0 29 21 50t51 21 50-21 21-50z" horiz-adv-x="857.1" />

<glyph glyph-name="floppy" unicode="&#xe811;" d="M214-7h429v214h-429v-214z m500 0h72v500q0 8-6 21t-11 20l-157 156q-5 6-19 12t-22 5v-232q0-22-15-38t-38-16h-322q-22 0-37 16t-16 38v232h-72v-714h72v232q0 22 16 38t37 16h465q22 0 38-16t15-38v-232z m-214 518v178q0 8-5 13t-13 5h-107q-7 0-13-5t-5-13v-178q0-7 5-13t13-5h107q7 0 13 5t5 13z m357-18v-518q0-22-15-38t-38-16h-750q-23 0-38 16t-16 38v750q0 22 16 38t38 16h517q23 0 50-12t42-26l156-157q16-15 27-42t11-49z" horiz-adv-x="857.1" />

<glyph glyph-name="ok" unicode="&#xe812;" d="M933 534q0-22-16-38l-404-404-76-76q-16-15-38-15t-38 15l-76 76-202 202q-15 16-15 38t15 38l76 76q16 16 38 16t38-16l164-165 366 367q16 16 38 16t38-16l76-76q16-15 16-38z" horiz-adv-x="1000" />

<glyph glyph-name="cancel" unicode="&#xe813;" d="M724 112q0-22-15-38l-76-76q-16-15-38-15t-38 15l-164 165-164-165q-16-15-38-15t-38 15l-76 76q-16 16-16 38t16 38l164 164-164 164q-16 16-16 38t16 38l76 76q16 16 38 16t38-16l164-164 164 164q16 16 38 16t38-16l76-76q15-15 15-38t-15-38l-164-164 164-164q15-15 15-38z" horiz-adv-x="785.7" />

<glyph glyph-name="cancel-circled" unicode="&#xe814;" d="M641 224q0 14-10 25l-101 101 101 101q10 11 10 25 0 15-10 26l-51 50q-10 11-25 11-15 0-25-11l-101-101-101 101q-11 11-25 11-16 0-26-11l-50-50q-11-11-11-26 0-14 11-25l101-101-101-101q-11-11-11-25 0-15 11-26l50-50q10-11 26-11 14 0 25 11l101 101 101-101q10-11 25-11 15 0 25 11l51 50q10 11 10 26z m216 126q0-117-57-215t-156-156-215-58-216 58-155 156-58 215 58 215 155 156 216 58 215-58 156-156 57-215z" horiz-adv-x="857.1" />

<glyph glyph-name="lock" unicode="&#xe815;" d="M640 476q20 0 40-19t20-41l0-390q0-48-48-66l-60-18q-42-16-96-16l-290 0q-56 0-98 16l-60 18q-48 18-48 66l0 390q0 22 15 41t35 19l100 0 0 70q0 110 51 170t149 60 149-60 51-170l0-70 90 0z m-390 90l0-90 200 0 0 90q0 52-27 81t-73 29-73-29-27-81z" horiz-adv-x="700" />

<glyph glyph-name="lock-open" unicode="&#xe816;" d="M640 450q20 0 40-20t20-40l0-390q0-20-14-39t-34-25l-60-20q-52-16-96-16l-290 0q-46 0-98 16l-60 20q-20 6-34 25t-14 39l0 390q0 22 15 41t35 19l400 0 0 140q0 110-100 110t-100-110l0-40-100 0 0 20q0 110 51 170t149 60q200 0 200-230l0-120 90 0z" horiz-adv-x="700" />

<glyph glyph-name="download" unicode="&#xe817;" d="M714 590q15-15 15-37t-15-36l-245-244-245 244q-15 15-15 36t15 37 36 15q23 0 38-15l118-120 0 349q0 21 16 37t37 16 37-16 15-37l0-349 119 120q14 14 38 14 22 0 36-14z m222-448l2-261q0-21-16-36t-37-16l-832 0q-22 0-37 16t-16 36q0 261 1 261 0 11 2 16l105 312q12 37 48 37l12 0q8-18 18-28l78-76-70 0-86-261 722 0-86 261-70 0 77 76q10 10 19 28l11 0q37 0 49-37l105-312q1-5 1-16z" horiz-adv-x="938" />

<glyph glyph-name="reply" unicode="&#xe818;" d="M365 702q20 0 36-16t15-36l0-133q178-20 298-153t120-313l0-53q-80 122-183 163t-235 46l0-130q0-21-15-37t-36-15q-22 0-37 15l-328 323 328 324q15 15 37 15z" horiz-adv-x="834" />

<glyph glyph-name="forward" unicode="&#xe819;" d="M416 650q0 21 16 36t37 16 36-15l329-324-329-323q-15-15-36-15t-37 15-16 37l0 130q-132-4-234-46t-182-163l0 53q0 180 119 313t297 153l0 133z" horiz-adv-x="834" />

<glyph glyph-name="at" unicode="&#xe81a;" d="M770 548c16-41 25-87 25-138 0-68-17-133-46-182-39-61-94-92-163-92-27 0-52 7-70 21-12 9-23 21-30 36-26-33-68-55-113-55-52 0-95 19-123 58-27 35-41 84-41 141s16 110 49 148c33 41 82 63 141 63 35 0 67-15 90-37l7 26 85 0-17-259c-1-21 1-36 9-43 3-5 10-8 20-8 76 0 102 123 102 183 0 72-24 132-67 176-50 51-122 76-209 76-84 0-158-26-214-76-65-59-101-143-101-245 0-86 31-165 85-221 52-53 122-82 205-82 95 0 167 14 241 47l15 7 0-96-6-3c-69-34-150-50-251-50-108 0-200 33-269 97-81 73-124 183-124 308 0 119 40 220 116 294 38 36 83 65 133 84 52 21 109 31 169 31 113 0 215-37 283-106 30-29 54-64 69-103z m-384-317c30 0 54 14 69 40 14 25 18 61 18 85 0 31-7 56-17 74-13 20-33 28-60 28-28 0-50-12-63-38-13-22-19-53-19-83 0-32 7-106 72-106z" horiz-adv-x="795" />

<glyph glyph-name="cancel-circled-1" unicode="&#xe81b;" d="M0 350q0 207 147 354t353 146 354-146 146-354-146-354-354-146-353 146-147 354z m219-156l125-125 156 156 156-156 125 125-156 156 156 156-125 125-156-156-156 156-125-125 156-156z" horiz-adv-x="1000" />

<glyph glyph-name="ok-1" unicode="&#xe81c;" d="M0 260l162 162 166-164 508 510 164-164-510-510-162-162-162 164z" horiz-adv-x="1000" />

<glyph glyph-name="cancel-1" unicode="&#xe81d;" d="M0 71l279 279-279 279 221 221 279-279 279 279 221-221-279-279 279-279-221-221-279 279-279-279z" horiz-adv-x="1000" />

<glyph glyph-name="cw-circled" unicode="&#xe81e;" d="M0 350q0 207 147 354t353 146 354-146 146-354-146-354-354-146-353 146-147 354z m211 0q0-119 85-204t204-85q80 0 146 39t104 106l-102 58q-21-39-61-62t-87-24q-70 0-121 51t-51 121 51 121 121 51q61 0 107-37l-76-55 258-86 0 270-84-61q-84 86-205 86-119 0-204-85t-85-204z" horiz-adv-x="1000" />

<glyph glyph-name="ok-2" unicode="&#xe81f;" d="M1179 778q-250-222-600-750l-115-179q-144 180-464 500l107 107 286-250q150 150 279 272t206 187 131 111 77 59l21 14q4 0 11-2t26-19 35-50z" horiz-adv-x="1179" />

<glyph glyph-name="cancel-2" unicode="&#xe820;" d="M654 349l346-346-154-154-346 346-346-346-154 154 346 346-346 346 154 154 346-346 346 346 154-154z" horiz-adv-x="1000" />

<glyph glyph-name="cw-circle" unicode="&#xe821;" d="M1000 349q0-136-67-251t-182-182-251-67-251 67-182 182-67 251 67 251 182 182 251 67 251-67 182-182 67-251z m-260-80l180 180h-120q-30 92-118 153t-187 60q-131 0-224-92t-93-224 93-223 224-93 223 92l-62 71q-66-64-156-64-91 0-155 65t-65 155 65 156 155 64q95 0 156-64 8-8 12-16t6-21 6-19h-120z" horiz-adv-x="1000" />

<glyph glyph-name="plus" unicode="&#xe822;" d="M786 439v-107q0-22-16-38t-38-15h-232v-233q0-22-16-37t-38-16h-107q-22 0-38 16t-15 37v233h-232q-23 0-38 15t-16 38v107q0 23 16 38t38 16h232v232q0 22 15 38t38 16h107q23 0 38-16t16-38v-232h232q23 0 38-16t16-38z" horiz-adv-x="785.7" />

<glyph glyph-name="minus" unicode="&#xe823;" d="M786 439v-107q0-22-16-38t-38-15h-678q-23 0-38 15t-16 38v107q0 23 16 38t38 16h678q23 0 38-16t16-38z" horiz-adv-x="785.7" />

<glyph glyph-name="location" unicode="&#xe824;" d="M429 493q0 59-42 101t-101 42-101-42-42-101 42-101 101-42 101 42 42 101z m142 0q0-61-18-100l-203-432q-9-18-27-29t-37-11-38 11-26 29l-204 432q-18 39-18 100 0 118 84 202t202 84 202-84 83-202z" horiz-adv-x="571.4" />

<glyph glyph-name="folder" unicode="&#xe825;" d="M929 511v-393q0-51-37-88t-88-37h-679q-51 0-88 37t-37 88v536q0 51 37 88t88 37h179q51 0 88-37t37-88v-18h375q51 0 88-37t37-88z" horiz-adv-x="928.6" />

<glyph glyph-name="folder-open" unicode="&#xe826;" d="M1049 319q0-17-18-37l-187-221q-24-28-67-48t-81-20h-607q-19 0-33 7t-15 24q0 17 17 37l188 221q24 28 67 48t80 20h607q19 0 34-7t15-24z m-192 192v-90h-464q-53 0-110-26t-92-67l-188-221-2-3q0 2-1 7t0 7v536q0 51 37 88t88 37h179q51 0 88-37t37-88v-18h303q52 0 88-37t37-88z" horiz-adv-x="1071.4" />

<glyph glyph-name="cog" unicode="&#xe827;" d="M571 350q0 59-41 101t-101 42-101-42-42-101 42-101 101-42 101 42 41 101z m286 61v-124q0-7-4-13t-11-7l-104-16q-10-30-21-51 19-27 59-77 6-6 6-13t-5-13q-15-21-55-61t-53-39q-7 0-14 5l-77 60q-25-13-51-21-9-76-16-104-4-16-20-16h-124q-8 0-14 5t-6 12l-16 103q-27 9-50 21l-79-60q-6-5-14-5-8 0-14 6-70 64-92 94-4 5-4 13 0 6 5 12 8 12 28 37t30 40q-15 28-23 55l-102 15q-7 1-11 7t-5 13v124q0 7 5 13t10 7l104 16q8 25 22 51-23 32-60 77-6 7-6 14 0 5 5 12 15 20 55 60t53 40q7 0 15-5l77-60q24 13 50 21 9 76 17 104 3 16 20 16h124q7 0 13-5t7-12l15-103q28-9 51-20l79 59q5 5 13 5 7 0 14-5 72-67 92-95 4-5 4-12 0-7-4-13-9-12-29-37t-30-40q15-28 23-54l102-16q7-1 12-7t4-13z" horiz-adv-x="857.1" />

<glyph glyph-name="down-open" unicode="&#xe828;" d="M939 399l-414-413q-10-11-25-11t-25 11l-414 413q-11 11-11 26t11 25l93 92q10 11 25 11t25-11l296-296 296 296q11 11 25 11t26-11l92-92q11-11 11-25t-11-26z" horiz-adv-x="1000" />

<glyph glyph-name="left-open" unicode="&#xe829;" d="M654 682l-297-296 297-297q10-10 10-25t-10-25l-93-93q-11-10-25-10t-25 10l-414 415q-11 10-11 25t11 25l414 414q10 11 25 11t25-11l93-93q10-10 10-25t-10-25z" horiz-adv-x="714.3" />

<glyph glyph-name="right-open" unicode="&#xe82a;" d="M618 361l-414-415q-11-10-25-10t-25 10l-93 93q-11 11-11 25t11 25l296 297-296 296q-11 11-11 25t11 25l93 93q10 11 25 11t25-11l414-414q10-11 10-25t-10-25z" horiz-adv-x="714.3" />

<glyph glyph-name="up-open" unicode="&#xe82b;" d="M939 107l-92-92q-11-10-26-10t-25 10l-296 297-296-297q-11-10-25-10t-25 10l-93 92q-11 11-11 26t11 25l414 414q11 10 25 10t25-10l414-414q11-11 11-25t-11-26z" horiz-adv-x="1000" />

<glyph glyph-name="shuffle" unicode="&#xe82c;" d="M372 582q-34-52-77-153-12 25-20 41t-23 35-28 32-36 19-45 8h-125q-8 0-13 5t-5 13v107q0 8 5 13t13 5h125q139 0 229-125z m628-446q0-8-5-13l-179-179q-5-5-12-5-8 0-13 6t-5 12v107q-18 0-48 0t-45-1-41 1-39 3-36 6-35 10-32 16-33 22-31 30-31 39q33 52 76 152 12-25 20-40t23-36 28-31 35-20 46-8h143v107q0 8 5 13t13 5q6 0 13-5l178-178q5-5 5-13z m0 500q0-8-5-13l-179-179q-5-5-12-5-8 0-13 6t-5 12v107h-143q-27 0-49-8t-38-25-29-34-25-44q-18-34-43-95-16-37-28-62t-30-59-36-55-41-47-50-38-60-23-71-10h-125q-8 0-13 5t-5 13v107q0 8 5 13t13 5h125q27 0 48 9t39 25 28 34 26 43q17 35 43 96 16 36 28 62t30 58 36 56 41 46 50 39 59 23 72 9h143v107q0 8 5 13t13 5q6 0 13-5l178-178q5-5 5-13z" horiz-adv-x="1000" />

<glyph glyph-name="phone" unicode="&#xe82d;" d="M786 158q0-15-6-39t-12-38q-11-28-68-60-52-28-103-28-15 0-30 2t-32 7-26 8-31 11-28 10q-54 20-97 47-71 44-148 120t-120 148q-27 43-46 97-2 5-10 28t-12 31-8 26-7 32-2 29q0 52 29 104 31 57 59 68 14 6 38 12t39 6q8 0 12-2 10-3 30-42 6-11 16-31t20-35 17-30q2-2 10-14t12-20 4-16q0-11-16-27t-35-31-34-30-16-25q0-5 3-13t4-11 8-14 7-10q42-77 97-132t131-97q1 0 10-6t14-8 11-5 13-2q10 0 25 16t30 34 31 35 28 16q7 0 15-4t20-12 14-10q14-8 30-17t36-20 30-17q39-19 42-29 2-4 2-12z" horiz-adv-x="785.7" />

<glyph glyph-name="chart-bar" unicode="&#xe82e;" d="M357 350v-286h-143v286h143z m214 286v-572h-142v572h142z m572-643v-72h-1143v858h71v-786h1072z m-357 500v-429h-143v429h143z m214 214v-643h-143v643h143z" horiz-adv-x="1142.9" />

<glyph glyph-name="upload-cloud" unicode="&#xe82f;" d="M760 494q100 0 170-68t70-166-70-166-170-68l-190 0 0 190 106 0-176 230-174-230 104 0 0-190-248 0q-74 0-128 52t-54 124q0 74 53 126t129 52q14 0 20-2-2 12-2 38 0 108 78 184t188 76q90 0 160-52t94-134q28 4 40 4z" horiz-adv-x="1000" />

<glyph glyph-name="picture-1" unicode="&#xe830;" d="M856 518l-100 0-124 150-214-150-180 0q-52 0-90-39t-38-91l0-160-108 296q-10 38 22 52l680 248q36 10 50-24z m106-90q16 0 27-12t11-28l0-472q0-16-11-28t-27-12l-724 0q-16 0-27 12t-11 28l0 472q0 16 11 28t27 12l724 0z m-56-452l0 162-72 160-166-60-130-132-138 170-92-214 0-86 598 0z" horiz-adv-x="1000" />

<glyph glyph-name="user-1" unicode="&#xe831;" d="M736 128q204-72 204-122l0-106-940 0 0 106q0 50 204 122 94 34 128 69t34 95q0 22-22 49t-32 73q-2 12-9 18t-14 8-14 17-9 43q0 16 5 26t9 12l4 4q-8 50-12 88-4 54 41 112t157 58 158-58 40-112l-12-88q18-8 18-42-2-28-9-43t-14-17-14-8-9-18q-8-48-31-74t-23-48q0-60 35-95t127-69z" horiz-adv-x="940" />

<glyph glyph-name="user-add" unicode="&#xe832;" d="M620 128q180-64 180-122l0-106-800 0 0 202q36 14 82 26 94 34 129 69t35 95q0 22-23 48t-31 74q-2 12-23 25t-25 61q0 16 5 26t9 12l4 4q-8 50-12 88-6 54 40 112t160 58 160-58 42-112l-14-88q18-8 18-42-2-28-9-43t-14-17-14-8-9-18q-10-46-33-73t-23-49q0-60 36-95t130-69z m230 272l150 0 0-100-150 0 0-150-100 0 0 150-150 0 0 100 150 0 0 150 100 0 0-150z" horiz-adv-x="1000" />

<glyph glyph-name="upload" unicode="&#xe833;" d="M500 776l260-244-164 0 0-256-190 0 0 256-166 0z m468-578q18-10 27-32t3-40l-28-154q-4-20-22-33t-40-13l-816 0q-22 0-40 13t-22 33l-28 154q-10 48 32 72l158 108 98 0-170-130 178 0q8 0 12-8l40-110 300 0 40 110q8 8 12 8l178 0-170 130 98 0z" horiz-adv-x="1000" />

<glyph glyph-name="download-1" unicode="&#xe834;" d="M968 198q18-10 27-32t3-40l-28-154q-4-20-22-33t-40-13l-816 0q-22 0-40 13t-22 33l-28 154q-10 48 32 72l158 108 98 0-170-130 178 0q8 0 12-8l40-110 300 0 40 110q8 8 12 8l178 0-170 130 98 0z m-208 322l-260-244-260 244 166 0 0 256 190 0 0-256 164 0z" horiz-adv-x="1000" />

<glyph glyph-name="eye-off" unicode="&#xe835;" d="M310 105l43 79q-48 35-76 88t-27 114q0 67 34 125-128-65-213-197 94-144 239-209z m217 424q0 11-8 19t-19 7q-70 0-120-50t-50-119q0-11 8-19t19-8 19 8 8 19q0 48 34 82t82 34q11 0 19 8t8 19z m202 106q0-4 0-5-59-105-176-316t-176-316l-28-50q-5-9-15-9-7 0-75 39-9 6-9 16 0 7 25 49-80 36-147 96t-117 137q-11 17-11 38t11 39q86 131 212 207t277 76q50 0 100-10l31 54q5 9 15 9 3 0 10-3t18-9 18-10 18-10 10-7q9-5 9-15z m21-249q0-78-44-142t-117-91l157 280q4-25 4-47z m250-72q0-19-11-38-22-36-61-81-84-96-194-149t-234-53l41 74q119 10 219 76t169 171q-65 100-158 164l35 63q53-36 102-85t81-103q11-19 11-39z" horiz-adv-x="1000" />

<glyph glyph-name="camera" unicode="&#xe836;" d="M500 450q64 0 107-44t43-106-44-106-106-44-106 44-44 106 44 106 106 44z m400 150q42 0 71-29t29-71l0-450q0-40-29-70t-71-30l-800 0q-40 0-70 30t-30 70l0 450q0 42 30 71t70 29l120 0q28 0 40 30l30 92q10 28 40 28l340 0q30 0 40-28l30-92q12-30 40-30l120 0z m-400-550q104 0 177 73t73 177-73 177-177 73-177-73-73-177 73-177 177-73z m366 380q14 0 24 11t10 25-10 24-24 10q-36 0-36-34 0-16 11-26t25-10z" horiz-adv-x="1000" />

<glyph glyph-name="star-filled" unicode="&#xe837;" d="M297 498q69 152 114 252 6 15 24 15t23-15l114-252q164-18 274-30 15-3 21-18t-6-27l-204-187q33-161 55-270 3-15-10-25t-27-2l-240 136q-144-81-240-136-15-9-28 2t-11 25l56 270q-122 112-204 187-12 11-6 26t21 19z" horiz-adv-x="869" />

<glyph glyph-name="home" unicode="&#xe838;" d="M521 819q322-279 500-429 20-16 20-40 0-21-15-37t-36-15l-105 0 0-364q0-21-15-37t-36-16l-156 0q-22 0-37 16t-16 37l0 208-209 0 0-208q0-21-15-37t-36-16l-156 0q-21 0-37 16t-16 37l0 364-103 0q-22 0-37 15t-16 37 19 40z" horiz-adv-x="1041" />

<glyph glyph-name="plus-1" unicode="&#xe839;" d="M729 454q44 0 74-31t31-73-31-73-74-30l-208 3 0-212q0-43-30-73t-75-31-73 31-30 73l3 212-212-3q-44 0-74 30t-30 73 30 73 74 31l212 0-3 209q0 42 30 73t73 31 75-31 30-73l0-209 208 0z" horiz-adv-x="834" />

<glyph glyph-name="minus-1" unicode="&#xe83a;" d="M729 455q44 0 74-32t31-73-31-74-74-30l-625 0q-44 0-74 30t-30 74q0 43 31 74t73 31l625 0z" horiz-adv-x="834" />

<glyph glyph-name="menu-2" unicode="&#xe83b;" d="M834 90q42 0 73-30t31-75q0-42-30-73t-74-31l-730 0q-44 0-74 31t-30 73q0 44 31 75t73 30l730 0z m0 364q44 0 74-31t30-73-30-73-74-30l-730 0q-44 0-74 30t-30 73 30 73 74 31l730 0z m0 365q44 0 74-31t30-73q0-43-31-74t-73-31l-730 0q-43 0-73 31t-31 74q0 43 30 73t74 31l730 0z" horiz-adv-x="938" />

<glyph glyph-name="bullhorn" unicode="&#xe83c;" d="M251 420c9 0 16 9 16 18s-7 16-16 16l-100 0c-9 0-18-7-18-16s9-18 18-18l100 0z m0-72c9 0 16 9 16 17s-7 17-16 17l-100 0c-9 0-18-8-18-17s9-17 18-17l100 0z m210-14c119 0 211-42 290-121l0 376c-78-82-171-126-290-126l0-129z m497 220l-33 34 137 136 34-32z m25-175l0 48 230 0 0-48-230 0z m-58-171l33 34 138-138-34-32z m-128 516c20 0 36-15 36-34l0-577c0-19-16-34-36-34s-35 15-35 34c-59 72-162 165-317 165l-64 0 140-236-85-62c-21-11-44 3-56 18l-174 280-94 0s-87 47-87 122 87 118 87 118l333 0c155 0 258 96 317 172 0 19 15 34 35 34z" horiz-adv-x="1213" />

<glyph glyph-name="clock-alt" unicode="&#xe83d;" d="M406 757c224 0 407-182 407-407 0-223-183-406-407-406-225 0-406 183-406 406 0 225 181 407 406 407z m0-723c175 0 317 143 317 318s-142 316-317 316-317-141-317-316 142-318 317-318z m108 268l-115 0c-14 0-25 5-33 15l-131 143c-39 42 25 102 65 62l118-130 96 0c61 0 55-90 0-90z" horiz-adv-x="813" />

<glyph glyph-name="grid" unicode="&#xe83e;" d="M0-22l0 744 970 0 0-744-970 0z m519 452l0-159 159 0 0 159-159 0z m0-384l159 0 0 157-159 0 0-157z m159 609l-159 0 0-158 159 0 0 158z m225-384l0 159-158 0 0-159 158 0z m-158-225l158 0 0 157-158 0 0-157z m158 451l0 158-158 0 0-158 158 0z m-835-67l0-159 158 0 0 159-158 0z m0-384l158 0 0 157-158 0 0-157z m158 609l-158 0 0-158 158 0 0 158z m225-384l0 159-157 0 0-159 157 0z m-157-225l157 0 0 157-157 0 0-157z m157 451l0 158-157 0 0-158 157 0z" horiz-adv-x="970" />

<glyph glyph-name="plus-2" unicode="&#xe83f;" d="M0 291v119q0 20 14 35t35 14h281v281q0 20 15 35t35 14h119q20 0 34-14t15-35v-281h281q20 0 35-14t14-35v-119q0-21-14-35t-35-15h-281v-282q0-20-15-34t-34-15h-119q-21 0-35 15t-15 34v282h-281q-20 0-35 15t-14 35z" horiz-adv-x="878.9" />

<glyph glyph-name="cancel-3" unicode="&#xe840;" d="M0 90q0 36 26 62l195 195-195 196q-26 25-26 61t26 61 61 25 61-25l196-196 195 196q25 25 61 25t61-25 25-61-25-61l-195-196 195-195q25-26 25-62t-25-61q-25-25-61-25t-61 25l-195 195-196-195q-25-25-61-25t-61 25q-26 26-26 61z" horiz-adv-x="686.5" />

<glyph glyph-name="ok-3" unicode="&#xe841;" d="M0 339q0-35 24-60l246-239q24-25 60-25 36 0 60 25l505 495q25 24 25 59t-25 58q-25 25-60 25t-60-25l-445-435-185 181q-25 24-60 24t-61-24q-24-24-24-59z" horiz-adv-x="920.4" />

<glyph glyph-name="eye-off-1" unicode="&#xe842;" d="M0 326q6 49 64 110 79 80 176 128 129 61 260 61 29 0 59-2l74 129q10 16 23 18 4 0 8-2l51-32q17-7 2-33l-57-101-47-79-41-72-144-250-41-72-47-80-57-100q-15-25-31-15l-53 31q-15 8 0 33l49 86-8 4q-103 53-176 129-64 72-64 109z m264 0q0-74 47-133l48 84q-9 24-9 49 0 51 34 91t85 50l49 84-18 0q-98 0-167-66t-69-159z m177-295l41 71 18 0q98 0 167 65t69 159q0 74-47 133l63 109q2-2 4-3t4-1q103-52 176-128 64-73 64-110-6-49-64-109-79-80-176-129-129-61-260-61-25 0-59 4z m90 155l110 189q9-25 9-49 0-51-34-90t-85-50z" horiz-adv-x="1000" />

<glyph glyph-name="eye-1" unicode="&#xe843;" d="M0 350q6 49 64 110 79 80 176 129 129 60 260 60 137-2 260-60 103-53 176-129 64-73 64-110-6-49-64-109-79-80-176-129-129-61-260-61-137 2-260 61-103 53-176 129-64 72-64 109z m264 0q0-94 69-159t167-65 167 65 69 159-69 159-167 66-167-66-69-159z m86 1q0 60 44 102t106 42 106-42 44-102-44-102-106-43-106 43-44 102z" horiz-adv-x="1000" />

<glyph glyph-name="download-alt" unicode="&#xe844;" d="M0-150l0 135 1000 0 0-135-1000 0z m88 586l228 0 0 414 370 0 0-414 228 0-414-385z" horiz-adv-x="1000" />

<glyph glyph-name="location-1" unicode="&#xe845;" d="M0 473q0 156 110 267t267 110 267-110 110-267q0-123-53-193l-324-430-324 430q-53 70-53 193z m219 0q0-66 46-112t112-46 112 46 46 112-46 112-112 46-112-46-46-112z" horiz-adv-x="754" />

<glyph glyph-name="phone-1" unicode="&#xe846;" d="M0 615q0 50 28 76l138 138q45 37 77-13l113-211q18-39-14-71l-51-52q-5-6-5-14 25-98 132-195l31-30t36-34 34-26 41-25 40-14q20-6 27 2l61 60q39 30 72 12l203-121q22-14 25-37t-13-39l-141-139q-27-27-74-27-140 4-318 121-258 185-375 406-72 151-67 233z" horiz-adv-x="988" />

<glyph glyph-name="cog-1" unicode="&#xe847;" d="M0 272l0 156 150 16q14 45 38 88l-96 117 109 109 117-95q41 23 88 37l16 150 156 0 16-150q45-14 88-37l117 95 109-109-96-117q24-43 38-88l150-16 0-156-150-16q-14-47-38-88l96-117-109-109-117 96q-43-24-88-38l-16-150-156 0-16 150q-47 14-88 38l-117-96-109 109 96 117q-24 41-38 88z m355 78q0-60 42-102t103-42 103 42 42 102-42 103-103 42-103-42-42-103z" horiz-adv-x="1000" />

<glyph glyph-name="down-open-2" unicode="&#xe848;" d="M0 526l148 148 352-351 352 351 148-148-352-352-148-148-148 148z" horiz-adv-x="1000" />

<glyph glyph-name="left-open-2" unicode="&#xe849;" d="M0 350l148 149 352 351 148-148-351-352 351-352-148-148-352 352z" horiz-adv-x="648" />

<glyph glyph-name="right-open-2" unicode="&#xe84a;" d="M0-2l352 352-352 352 148 148 352-351 148-149-148-148-352-352z" horiz-adv-x="648" />

<glyph glyph-name="up-open-2" unicode="&#xe84b;" d="M0 174l352 352 148 148 148-148 352-352-148-148-352 351-352-351z" horiz-adv-x="1000" />

<glyph glyph-name="search-1" unicode="&#xe84c;" d="M746 209l254-255-105-105-254 254q-106-72-232-72-169 0-289 120t-120 289 120 289 289 120 289-120 120-289q0-127-72-231z m-65 231q0 113-79 193t-193 80-193-80-80-193 80-192 193-80 193 80 79 192z" horiz-adv-x="1000" />

<glyph glyph-name="cancel-circle" unicode="&#xe84d;" d="M1000 349q0-136-67-251t-182-182-251-67-251 67-182 182-67 251 67 251 182 182 251 67 251-67 182-182 67-251z m-339-232l71 71-161 161 161 161-71 71-161-161-161 161-71-71 161-161-161-161 71-71 161 161z" horiz-adv-x="1000" />

<glyph glyph-name="minus-circle" unicode="&#xe84e;" d="M1000 349q0-136-67-251t-182-182-251-67-251 67-182 182-67 251 67 251 182 182 251 67 251-67 182-182 67-251z m-794-58h589v118h-589v-118z" horiz-adv-x="1000" />

<glyph glyph-name="plus-circle" unicode="&#xe84f;" d="M1000 349q0-136-67-251t-182-182-251-67-251 67-182 182-67 251 67 251 182 182 251 67 251-67 182-182 67-251z m-440-58h235v118h-235v235h-118v-235h-236v-118h236v-236h118v236z" horiz-adv-x="1000" />

<glyph glyph-name="ok-circle" unicode="&#xe850;" d="M500 850q136 0 251-67t182-182 67-251-67-251-182-182-251-67-251 67-182 182-67 251 67 251 182 182 251 67z m-240-447l-54-53q71-71 129-133t81-90l22-26q8 13 22 36t57 85 83 119 95 119 99 104q-18 35-36 35-10-6-32-22t-113-97-211-201z" horiz-adv-x="1000" />

<glyph glyph-name="reply-2" unicode="&#xe851;" d="M501 850v-319q110-15 204-45t159-68 118-82 86-91 57-90 35-84 18-69 6-47l1-17q-6 11-19 29t-67 64-125 76-196 52q-77 12-162 12-55 0-115-5v-316l-501 499z" horiz-adv-x="1185" />

<glyph glyph-name="reply-all" unicode="&#xe852;" d="M501 850v-182l-319-319 319-318v-181l-501 499z m365 0v-319q110-15 204-45t159-68 118-82 86-91 57-90 35-84 18-69 7-47v-17q-6 11-19 29t-67 64-125 76q-71 32-197 52-77 12-161 12-55 0-115-5v-316l-501 499z" horiz-adv-x="1550" />

<glyph glyph-name="forward-1" unicode="&#xe853;" d="M0 531h684v319l501-501-501-499v316h-684v365z" horiz-adv-x="1185" />

<glyph glyph-name="clock-1" unicode="&#xe854;" d="M1000 349q0-136-67-251t-182-182-251-67-251 67-182 182-67 251 67 251 182 182 251 67 251-67 182-182 67-251z m-117 0q0 158-112 271t-271 112q-126 0-226-74l2-2q-48-35-83-83l-2 2q-74-100-74-226 0-158 113-270t270-113q126 0 226 74l-2 2q48 35 83 83l2-2q74 100 74 226z m-203-200q0-25-17-42t-43-18q-26 0-42 18l-120 120q-18 18-18 62v320q0 25 18 43t42 17 43-17 17-43v-315l102-103q18-16 18-42z" horiz-adv-x="1000" />

<glyph glyph-name="block-1" unicode="&#xe855;" d="M1000 349q0-136-67-251t-182-182-251-67-251 67-182 182-67 251 67 251 182 182 251 67 251-67 182-182 67-251z m-117 0q0 158-112 271t-271 112q-126 0-226-74l535-535q74 100 74 226z m-157-309l-535 535q-74-100-74-226 0-158 113-270t270-113q126 0 226 74z" horiz-adv-x="1000" />

<glyph glyph-name="down-open-1" unicode="&#xf004;" d="M0 533q0 25 18 43t44 18 42-18l305-303 304 303q18 18 43 18t43-18q18-18 18-43t-18-43l-390-391-391 391q-18 19-18 43z" horiz-adv-x="817.4" />

<glyph glyph-name="up-open-1" unicode="&#xf005;" d="M0 167q0 26 18 43l391 391 390-391q17-17 17-43 0-26-17-44-18-17-44-17t-43 17l-303 305-305-305q-18-17-43-17t-43 17q-18 18-18 44z" horiz-adv-x="816.9" />

<glyph glyph-name="right-open-1" unicode="&#xf006;" d="M0 0q0 25 18 43l305 304-305 304q-18 18-18 44t18 43 44 18 43-18l390-391-390-391q-19-18-43-18t-44 18q-18 18-18 44z" horiz-adv-x="495.1" />

<glyph glyph-name="left-open-1" unicode="&#xf007;" d="M0 353l391 391q18 18 43 18 24 0 43-18 18-18 18-44t-18-43l-304-304 304-305q18-17 18-43t-18-43q-18-18-43-18t-43 18z" horiz-adv-x="495.1" />

<glyph glyph-name="menu" unicode="&#xf008;" d="M68 62q0-30 21-51t51-21h793q30 0 51 21t21 51-21 51-51 21h-793q-29 0-51-21t-21-51z m0 288q0-30 21-51t51-21h793q30 0 51 21t21 51-21 51-51 21h-793q-29 0-51-21t-21-51z m0 288q0-30 21-51t51-21h793q30 0 51 21t21 51-21 51-51 21h-793q-29 0-51-21t-21-51z" horiz-adv-x="1073.2" />

<glyph glyph-name="th-thumb" unicode="&#xf00a;" d="M0-66v286q0 22 15 37t37 16h285q22 0 37-16t15-37v-286q0-21-15-36t-37-15h-285q-22 0-37 15t-15 36z m0 546v286q0 21 15 36t37 15h285q22 0 37-15t15-36v-286q0-22-15-37t-37-16h-285q-22 0-37 16t-15 37z m547-546v286q0 22 15 37t37 16h286q21 0 37-16t15-37v-286q0-21-15-36t-37-15h-286q-21 0-37 15t-15 36z m0 546v286q0 21 15 36t37 15h286q22 0 37-15t15-36v-286q0-22-15-37t-37-16h-286q-21 0-37 16t-15 37z" horiz-adv-x="937.5" />

<glyph glyph-name="reply-1" unicode="&#xf02a;" d="M0 380q0 6 3 13t7 10l3 3 377 274q20 16 35 6t15-41v-111l27-2q96-8 181-54t146-117 94-165 33-197q-61 107-161 175t-223 78q-49 5-97-1v-137q0-30-15-40t-35 5l-377 274q-13 11-13 27z" horiz-adv-x="920.9" />

<glyph glyph-name="login-1" unicode="&#xf02c;" d="M0 359q0 33 24 57t57 23h344l-111 111q-24 23-24 56t24 58q24 23 57 23t57-23l247-248q24-24 24-57t-24-57l-242-242q-24-24-57-24t-57 24-23 56 23 58l106 105h-344q-34 0-57 23t-24 57z m582-397q0 33 23 57t57 23h72q18 0 30 13t12 29v532q0 17-12 29t-30 13h-72q-33 0-57 23t-23 57 23 57 57 23h72q84 0 144-59t59-143v-532q0-84-60-144t-143-59h-72q-33 0-57 24t-23 57z" horiz-adv-x="937.5" />

<glyph glyph-name="logout-1" unicode="&#xf02d;" d="M0 84q0-84 59-143t144-60h72q33 0 57 24t23 57-23 57-57 23h-72q-18 0-30 13t-12 29v532q0 17 12 29t30 13h72q33 0 57 23t23 57-23 57-57 23h-72q-84 0-144-59t-59-143v-532z m238 252q0 33 24 57t57 23h344l-110 111q-24 23-24 57t24 57q23 23 57 23t56-23l248-248q23-24 23-57t-23-57l-243-242q-23-23-57-23t-57 23q-23 23-23 57t24 57l105 105h-344q-33 0-57 23t-24 57z" horiz-adv-x="937.5" />

<glyph glyph-name="lock-open-alt" unicode="&#xf075;" d="M0-30v393q0 14 10 24t25 9h449v149q0 63-42 108-42 42-97 42t-98-42q-41-44-41-108v-38h-126v38q0 55 20 104t56 88q36 38 85 60t104 21 104-21 84-60q37-38 57-88t20-104v-149h45q15 0 25-9t10-24v-393q0-13-8-19t-27-14q-10-5-35-12t-66-19-98-17-111-8q-155 0-310 56-17 5-26 13t-9 20z m187 171q0-12 8-21l86-83q8-8 20-8 13 0 21 8l175 171q9 9 9 21t-9 21q-8 8-21 8t-20-8l-155-152-64 63q-9 9-21 9t-21-9q-8-8-8-20z" horiz-adv-x="689.5" />

<glyph glyph-name="menu-1" unicode="&#xf0c9;" d="M857 100v-71q0-15-10-25t-26-11h-785q-15 0-25 11t-11 25v71q0 15 11 25t25 11h785q15 0 26-11t10-25z m0 286v-72q0-14-10-25t-26-10h-785q-15 0-25 10t-11 25v72q0 14 11 25t25 10h785q15 0 26-10t10-25z m0 285v-71q0-14-10-25t-26-11h-785q-15 0-25 11t-11 25v71q0 15 11 26t25 10h785q15 0 26-10t10-26z" horiz-adv-x="857.1" />

<glyph glyph-name="table" unicode="&#xf0ce;" d="M286 82v107q0 8-5 13t-13 5h-179q-7 0-12-5t-6-13v-107q0-8 6-13t12-5h179q8 0 13 5t5 13z m0 214v108q0 7-5 12t-13 5h-179q-7 0-12-5t-6-12v-108q0-7 6-12t12-5h179q8 0 13 5t5 12z m285-214v107q0 8-5 13t-12 5h-179q-8 0-13-5t-5-13v-107q0-8 5-13t13-5h179q7 0 12 5t5 13z m-285 429v107q0 8-5 13t-13 5h-179q-7 0-12-5t-6-13v-107q0-8 6-13t12-5h179q8 0 13 5t5 13z m285-215v108q0 7-5 12t-12 5h-179q-8 0-13-5t-5-12v-108q0-7 5-12t13-5h179q7 0 12 5t5 12z m286-214v107q0 8-5 13t-13 5h-178q-8 0-13-5t-5-13v-107q0-8 5-13t13-5h178q8 0 13 5t5 13z m-286 429v107q0 8-5 13t-12 5h-179q-8 0-13-5t-5-13v-107q0-8 5-13t13-5h179q7 0 12 5t5 13z m286-215v108q0 7-5 12t-13 5h-178q-8 0-13-5t-5-12v-108q0-7 5-12t13-5h178q8 0 13 5t5 12z m0 215v107q0 8-5 13t-13 5h-178q-8 0-13-5t-5-13v-107q0-8 5-13t13-5h178q8 0 13 5t5 13z m72 178v-607q0-37-27-63t-63-26h-750q-36 0-63 26t-26 63v607q0 37 26 63t63 27h750q37 0 63-27t27-63z" horiz-adv-x="928.6" />

<glyph glyph-name="sort" unicode="&#xf0dc;" d="M571 243q0-15-10-25l-250-250q-11-11-25-11t-25 11l-250 250q-11 10-11 25t11 25 25 11h500q14 0 25-11t10-25z m0 214q0-14-10-25t-25-11h-500q-15 0-25 11t-11 25 11 25l250 250q10 11 25 11t25-11l250-250q10-10 10-25z" horiz-adv-x="571.4" />

<glyph glyph-name="mail-alt" unicode="&#xf0e0;" d="M1000 454v-443q0-37-26-63t-63-27h-822q-36 0-63 27t-26 63v443q25-27 56-49 202-137 278-192 32-24 51-37t53-27 61-13h2q28 0 61 13t53 27 51 37q95 68 278 192 32 22 56 49z m0 164q0-44-27-84t-68-69q-210-146-262-181-5-4-23-17t-30-22-29-18-32-15-28-5h-2q-12 0-27 5t-32 15-30 18-30 22-23 17q-51 35-147 101t-114 80q-35 23-65 64t-31 77q0 43 23 72t66 29h822q36 0 63-26t26-63z" horiz-adv-x="1000" />

<glyph glyph-name="gauge" unicode="&#xf0e4;" d="M214 207q0 30-21 51t-50 21-51-21-21-51 21-50 51-21 50 21 21 50z m107 250q0 30-20 51t-51 21-50-21-21-51 21-50 50-21 51 21 20 50z m239-268l57 213q3 14-5 27t-21 16-27-3-17-22l-56-213q-33-3-60-25t-35-55q-11-43 11-81t66-50 81 11 50 66q9 33-4 65t-40 51z m369 18q0 30-21 51t-51 21-50-21-21-51 21-50 50-21 51 21 21 50z m-358 357q0 30-20 51t-51 21-50-21-21-51 21-50 50-21 51 21 20 50z m250-107q0 30-20 51t-51 21-50-21-21-51 21-50 50-21 51 21 20 50z m179-250q0-145-79-269-10-17-30-17h-782q-20 0-30 17-79 123-79 269 0 102 40 194t106 160 160 107 194 39 194-39 160-107 106-160 40-194z" horiz-adv-x="1000" />

<glyph glyph-name="lightbulb" unicode="&#xf0eb;" d="M411 529q0-8-6-13t-12-5-13 5-5 13q0 25-30 39t-59 14q-7 0-13 5t-5 13 5 13 13 5q28 0 55-9t49-30 21-50z m89 0q0 40-19 74t-50 57-69 35-76 12-76-12-69-35-50-57-20-74q0-57 38-101 6-6 17-18t17-19q72-85 79-166h127q8 81 79 166 6 6 17 19t17 18q38 44 38 101z m71 0q0-87-57-150-25-27-42-48t-33-54-19-60q26-15 26-46 0-20-13-35 13-15 13-36 0-29-25-45 8-13 8-26 0-26-18-40t-43-14q-11-25-34-39t-48-15-49 15-33 39q-26 0-44 14t-17 40q0 13 7 26-25 16-25 45 0 21 14 36-14 15-14 35 0 31 26 46-2 28-19 60t-33 54-41 48q-58 63-58 150 0 55 25 103t65 79 92 49 104 19 104-19 91-49 66-79 24-103z" horiz-adv-x="571.4" />

<glyph glyph-name="exchange" unicode="&#xf0ec;" d="M1000 189v-107q0-7-5-12t-13-6h-768v-107q0-7-5-12t-13-6q-6 0-13 6l-178 178q-5 6-5 13 0 8 5 13l179 178q5 5 12 5 8 0 13-5t5-13v-107h768q7 0 13-5t5-13z m0 304q0-8-5-13l-179-178q-5-6-12-6-8 0-13 6t-5 12v107h-768q-7 0-13 6t-5 12v107q0 8 5 13t13 5h768v107q0 8 5 13t13 5q6 0 13-5l178-178q5-5 5-13z" horiz-adv-x="1000" />

<glyph glyph-name="bell-alt" unicode="&#xf0f3;" d="M509-96q0 8-9 8-33 0-57 24t-23 57q0 9-9 9t-9-9q0-41 29-70t69-28q9 0 9 9z m455 160q0-29-21-50t-50-21h-250q0-59-42-101t-101-42-101 42-42 101h-250q-29 0-50 21t-21 50q28 24 51 49t47 67 42 89 27 115 11 145q0 84 66 157t171 89q-5 10-5 21 0 23 16 38t38 16 38-16 16-38q0-11-5-21 106-16 171-89t66-157q0-78 11-145t28-115 41-89 48-67 50-49z" horiz-adv-x="1000" />

<glyph glyph-name="angle-double-left" unicode="&#xf100;" d="M350 82q0-7-6-13l-28-28q-5-5-12-5t-13 5l-260 261q-6 5-6 12t6 13l260 260q5 6 13 6t12-6l28-28q6-5 6-13t-6-12l-219-220 219-219q6-6 6-13z m214 0q0-7-5-13l-28-28q-6-5-13-5t-13 5l-260 261q-6 5-6 12t6 13l260 260q6 6 13 6t13-6l28-28q5-5 5-13t-5-12l-220-220 220-219q5-6 5-13z" horiz-adv-x="571.4" />

<glyph glyph-name="angle-double-right" unicode="&#xf101;" d="M332 314q0-7-5-12l-261-261q-5-5-12-5t-13 5l-28 28q-6 6-6 13t6 13l219 219-219 220q-6 5-6 12t6 13l28 28q5 6 13 6t12-6l261-260q5-5 5-13z m214 0q0-7-5-12l-260-261q-6-5-13-5t-13 5l-28 28q-5 6-5 13t5 13l219 219-219 220q-5 5-5 12t5 13l28 28q6 6 13 6t13-6l260-260q5-5 5-13z" horiz-adv-x="571.4" />

<glyph glyph-name="angle-left" unicode="&#xf104;" d="M350 546q0-7-6-12l-219-220 219-219q6-6 6-13t-6-13l-28-28q-5-5-12-5t-13 5l-260 261q-6 5-6 12t6 13l260 260q5 6 13 6t12-6l28-28q6-5 6-13z" horiz-adv-x="357.1" />

<glyph glyph-name="angle-right" unicode="&#xf105;" d="M332 314q0-7-5-12l-261-261q-5-5-12-5t-13 5l-28 28q-6 6-6 13t6 13l219 219-219 220q-6 5-6 12t6 13l28 28q5 6 13 6t12-6l261-260q5-5 5-13z" horiz-adv-x="357.1" />

<glyph glyph-name="angle-up" unicode="&#xf106;" d="M600 189q0-7-6-12l-28-28q-5-6-12-6t-13 6l-220 219-219-219q-5-6-13-6t-12 6l-28 28q-6 5-6 12t6 13l260 260q5 6 12 6t13-6l260-260q6-5 6-13z" horiz-adv-x="642.9" />

<glyph glyph-name="angle-down" unicode="&#xf107;" d="M600 439q0-7-6-12l-260-261q-5-5-13-5t-12 5l-260 261q-6 5-6 12t6 13l28 28q5 6 12 6t13-6l219-219 220 219q5 6 13 6t12-6l28-28q6-5 6-13z" horiz-adv-x="642.9" />

<glyph glyph-name="help" unicode="&#xf128;" d="M393 149v-134q0-9-7-15t-15-7h-134q-9 0-16 7t-7 15v134q0 9 7 16t16 6h134q9 0 15-6t7-16z m176 335q0-30-8-56t-20-43-31-33-32-25-34-19q-23-13-38-37t-15-37q0-10-7-18t-16-9h-134q-8 0-14 11t-6 20v26q0 46 37 87t79 60q33 16 47 32t14 42q0 24-26 41t-60 18q-36 0-60-16-20-14-60-64-7-9-17-9-7 0-14 4l-91 70q-8 6-9 14t3 16q89 148 259 148 45 0 90-17t81-46 59-72 23-88z" horiz-adv-x="571.4" />

<glyph glyph-name="attention-alt" unicode="&#xf12a;" d="M286 154v-125q0-15-11-25t-25-11h-143q-14 0-25 11t-11 25v125q0 14 11 25t25 10h143q15 0 25-10t11-25z m17 589l-16-429q-1-14-12-25t-25-10h-143q-14 0-25 10t-12 25l-15 429q-1 14 10 25t24 11h179q14 0 25-11t10-25z" horiz-adv-x="357.1" />

<glyph glyph-name="calendar-empty" unicode="&#xf133;" d="M71-79h786v572h-786v-572z m215 679v161q0 8-5 13t-13 5h-36q-8 0-13-5t-5-13v-161q0-8 5-13t13-5h36q8 0 13 5t5 13z m428 0v161q0 8-5 13t-13 5h-35q-8 0-13-5t-5-13v-161q0-8 5-13t13-5h35q8 0 13 5t5 13z m215 36v-715q0-29-22-50t-50-21h-786q-29 0-50 21t-21 50v715q0 29 21 50t50 21h72v54q0 37 26 63t63 26h36q37 0 63-26t26-63v-54h214v54q0 37 27 63t63 26h35q37 0 64-26t26-63v-54h71q29 0 50-21t22-50z" horiz-adv-x="928.6" />

<glyph glyph-name="angle-circled-up" unicode="&#xf139;" d="M650 214l57 57q11 11 11 25t-11 26l-253 253q-11 11-25 11t-25-11l-254-253q-10-11-10-26t10-25l57-57q11-10 25-10t25 10l172 172 171-172q11-10 25-10t25 10z m207 136q0-117-57-215t-156-156-215-58-216 58-155 156-58 215 58 215 155 156 216 58 215-58 156-156 57-215z" horiz-adv-x="857.1" />

<glyph glyph-name="angle-circled-down" unicode="&#xf13a;" d="M454 125l253 254q11 10 11 25t-11 25l-57 57q-10 10-25 10t-25-10l-171-172-172 172q-10 10-25 10t-25-10l-57-57q-10-11-10-25t10-25l254-254q10-10 25-10t25 10z m403 225q0-117-57-215t-156-156-215-58-216 58-155 156-58 215 58 215 155 156 216 58 215-58 156-156 57-215z" horiz-adv-x="857.1" />

<glyph glyph-name="pencil-squared" unicode="&#xf14b;" d="M225 232l85-85-29-29h-31v53h-54v32z m232 217q7-7-2-16l-163-163q-9-9-16-1-8 7 1 16l163 163q9 9 17 1z m-153-385l303 304-161 161-303-304v-161h161z m339 340l51 51q16 16 16 38t-16 38l-85 85q-15 15-38 15t-37-15l-52-52z m214 214v-536q0-66-47-113t-114-48h-535q-67 0-114 48t-47 113v536q0 66 47 113t114 48h535q67 0 114-48t47-113z" horiz-adv-x="857.1" />

<glyph glyph-name="doc-text-inv" unicode="&#xf15c;" d="M819 584q8-7 16-20h-264v264q13-8 21-16z m-265-91h303v-589q0-23-15-38t-38-16h-750q-23 0-38 16t-16 38v892q0 23 16 38t38 16h446v-304q0-22 16-37t38-16z m89-411v36q0 8-5 13t-13 5h-393q-8 0-13-5t-5-13v-36q0-8 5-13t13-5h393q8 0 13 5t5 13z m0 143v36q0 8-5 13t-13 5h-393q-8 0-13-5t-5-13v-36q0-8 5-13t13-5h393q8 0 13 5t5 13z m0 143v36q0 7-5 12t-13 5h-393q-8 0-13-5t-5-12v-36q0-8 5-13t13-5h393q8 0 13 5t5 13z" horiz-adv-x="857.1" />

<glyph glyph-name="paper-plane" unicode="&#xf1d8;" d="M984 844q19-13 15-36l-142-857q-3-16-18-25-8-5-18-5-6 0-13 3l-253 104-135-165q-10-13-27-13-7 0-12 2-11 4-17 13t-7 21v195l482 590-596-516-221 91q-20 8-22 30-1 23 18 33l928 536q9 5 18 5 11 0 20-6z" horiz-adv-x="1000" />

<glyph glyph-name="trash" unicode="&#xf1f8;" d="M286 82v393q0 8-5 13t-13 5h-36q-8 0-13-5t-5-13v-393q0-8 5-13t13-5h36q8 0 13 5t5 13z m143 0v393q0 8-5 13t-13 5h-36q-8 0-13-5t-5-13v-393q0-8 5-13t13-5h36q8 0 13 5t5 13z m142 0v393q0 8-5 13t-12 5h-36q-8 0-13-5t-5-13v-393q0-8 5-13t13-5h36q7 0 12 5t5 13z m-303 554h250l-27 65q-4 5-9 6h-177q-6-1-10-6z m518-18v-36q0-8-5-13t-13-5h-54v-529q0-46-26-80t-63-34h-464q-37 0-63 33t-27 79v531h-53q-8 0-13 5t-5 13v36q0 8 5 13t13 5h172l39 93q9 21 31 35t44 15h178q23 0 44-15t30-35l39-93h173q8 0 13-5t5-13z" horiz-adv-x="785.7" />

<glyph glyph-name="birthday" unicode="&#xf1fd;" d="M1000 64v-214h-1000v214q25 0 47 8t33 15 27 21q16 15 28 22t32 6q13 0 24-4t18-9 18-15q16-14 26-21t33-15 48-8q25 0 47 8t33 15 26 21q12 11 18 15t18 9 24 4q20 0 32-6t28-22q16-13 27-21t32-15 48-8 47 8 33 15 26 21q17 15 29 22t32 6q19 0 31-6t28-22q16-13 27-21t33-15 47-8z m0 179v-107q-13 0-25 4t-17 8-18 15q-16 14-26 21t-33 15-47 8q-26 0-48-8t-33-15-26-21q-12-10-18-15t-18-8-24-4q-20 0-32 6t-28 21q-17 14-27 21t-32 15-48 8q-25 0-47-8t-33-15-27-21q-11-10-18-15t-17-8-24-4q-20 0-32 6t-29 21q-15 14-26 21t-33 15-47 8q-26 0-48-8t-32-15-27-21q-16-15-28-21t-32-6v107q0 45 31 76t76 31h36v250h143v-250h143v250h142v-250h143v250h143v-250h36q45 0 76-31t31-76z m-714 482q0-43-20-66t-52-23q-29 0-50 21t-21 50q0 16 5 29t13 19 18 15 17 18 13 25 5 37q22 0 47-41t25-84z m285 0q0-43-20-66t-51-23q-30 0-50 21t-21 50q0 16 5 29t13 19 17 15 18 18 13 25 5 37q21 0 46-41t25-84z m286 0q0-43-20-66t-51-23q-30 0-51 21t-21 50q0 16 6 29t13 19 17 15 17 18 13 25 6 37q21 0 46-41t25-84z" horiz-adv-x="1000" />

<glyph glyph-name="venus" unicode="&#xf221;" d="M643 529q0-124-82-215t-204-105v-145h125q8 0 13-5t5-13v-35q0-8-5-13t-13-5h-125v-125q0-8-5-13t-13-5h-35q-8 0-13 5t-5 13v125h-125q-8 0-13 5t-5 13v35q0 8 5 13t13 5h125v145q-84 9-152 58t-104 125-29 163q6 75 45 139t102 105 137 49q95 10 178-30t131-119 49-170z m-572 0q0-104 74-177t176-73 177 73 73 177-73 176-177 74-176-74-74-176z" horiz-adv-x="714.3" />

<glyph glyph-name="mars" unicode="&#xf222;" d="M821 779q15 0 26-11t10-25v-232q0-8-5-13t-13-5h-35q-8 0-13 5t-5 13v146l-213-214q70-87 70-200 0-65-25-125t-69-102-103-69-125-26-124 26-103 69-69 102-25 125 25 125 69 102 103 69 124 25q114 0 201-70l213 213h-146q-7 0-12 5t-6 13v36q0 8 6 13t12 5h232z m-500-786q104 0 177 73t73 177-73 177-177 73-176-73-74-177 74-177 176-73z" horiz-adv-x="857.1" />

<glyph glyph-name="server" unicode="&#xf233;" d="M71 64h572v72h-572v-72z m0 286h572v71h-572v-71z m875-250q0 22-15 38t-38 16-38-16-16-38 16-38 38-16 38 16 15 38z m-875 536h572v71h-572v-71z m875-250q0 22-15 38t-38 15-38-15-16-38 16-38 38-16 38 16 15 38z m0 285q0 23-15 38t-38 16-38-16-16-38 16-37 38-16 38 16 15 37z m54-464v-214h-1000v214h1000z m0 286v-214h-1000v214h1000z m0 286v-215h-1000v215h1000z" horiz-adv-x="1000" />

<glyph glyph-name="user-plus" unicode="&#xf234;" d="M393 350q-89 0-152 63t-62 151 62 152 152 63 151-63 63-152-63-151-151-63z m536-71h196q7 0 13-6t5-12v-107q0-8-5-13t-13-5h-196v-197q0-7-6-12t-12-6h-107q-8 0-13 6t-5 12v197h-197q-7 0-12 5t-6 13v107q0 7 6 12t12 6h197v196q0 7 5 13t13 5h107q7 0 12-5t6-13v-196z m-411-125q0-29 21-51t50-21h143v-133q-38-28-95-28h-488q-67 0-108 39t-41 106q0 30 2 58t8 61 15 60 24 55 34 45 48 30 62 11q11 0 22-10 44-34 86-51t92-17 92 17 86 51q11 10 22 10 73 0 121-54h-125q-29 0-50-21t-21-50v-107z" horiz-adv-x="1142.9" />

<glyph glyph-name="user-times" unicode="&#xf235;" d="M393 350q-89 0-152 63t-62 151 62 152 152 63 151-63 63-152-63-151-151-63z m601-179l139-138q5-5 5-13 0-8-5-13l-76-76q-5-5-12-5-8 0-13 5l-139 139-139-139q-5-5-13-5-7 0-12 5l-76 76q-5 5-5 13 0 8 5 13l139 138-139 139q-5 5-5 13 0 8 5 13l76 75q5 5 12 5 8 0 13-5l139-139 139 139q5 5 13 5 7 0 12-5l76-75q5-5 5-13 0-8-5-13z m-278 0l-101-101q-21-20-21-50 0-30 21-51l46-46q-11-2-24-2h-488q-67 0-108 39t-41 106q0 30 2 58t8 61 15 60 24 55 34 45 48 30 62 11q11 0 22-10 86-68 178-68t178 68q11 10 22 10 15 0 31-4-15-15-22-27t-8-32q0-30 21-51z" horiz-adv-x="1142.9" />

<glyph glyph-name="envelope-open" unicode="&#xf2b6;" d="M1000 485v-546q0-37-26-63t-63-26h-822q-36 0-63 26t-26 63v546q0 8 6 13 5 4 22 20t23 20 26 21 39 31 53 40 80 60 108 79q2 2 29 22t40 29 36 20 38 10 39-10 36-20 39-29 29-22q62-45 108-79t80-60 54-40 39-31 25-21 23-20 22-20q6-5 6-13z m-315-326q147 106 193 140 6 5 7 12t-4 13l-21 29q-4 6-12 7t-13-4q-129-94-192-139-2-2-29-22t-39-29-36-20-39-10-38 10-36 20-40 29-29 22q-104 74-192 139-6 5-13 4t-12-7l-21-29q-5-6-4-13t7-12q46-34 193-140 5-5 28-22t36-26 36-22 43-19 42-6 42 6 44 20 36 22 37 26 26 21z" horiz-adv-x="1000" />

<glyph glyph-name="address-book" unicode="&#xf2b9;" d="M670 159q0 32-3 60t-12 56-22 48-35 32-51 13q-3-2-19-12t-23-13-23-11-27-10-26-3-26 3-28 10-22 11-24 13-19 12q-28 0-50-13t-36-32-22-48-12-56-3-60q0-41 23-68t58-27h321q34 0 58 27t23 68z m-96 332q0 60-43 102t-102 43-103-43-42-102q0-60 42-102t103-43 102 43 43 102z m355-302v-107q0-8-5-13t-13-5h-54v-125q0-37-26-63t-63-26h-679q-36 0-63 26t-26 63v822q0 37 26 63t63 26h679q37 0 63-26t26-63v-125h54q8 0 13-5t5-13v-107q0-8-5-13t-13-5h-54v-72h54q8 0 13-5t5-12v-108q0-7-5-12t-13-5h-54v-72h54q8 0 13-5t5-13z" horiz-adv-x="928.6" />

<glyph glyph-name="address-card" unicode="&#xf2bb;" d="M571 219q0 36-5 65t-16 58-34 43-54 16q-3-2-17-10t-21-12-19-9-24-9-24-2-23 2-24 9-20 9-21 12-17 10q-32 0-54-16t-34-43-16-58-5-65 21-60 50-23h286q30 0 51 23t20 60z m-87 290q0 53-37 90t-90 37-89-37-37-90 37-89 89-38 90 38 37 89z m516-284v36q0 8-5 13t-13 5h-321q-8 0-13-5t-5-13v-36q0-8 5-13t13-5h321q8 0 13 5t5 13z m0 145v31q0 9-6 15t-14 5h-317q-8 0-14-5t-6-15v-31q0-8 6-14t14-6h317q8 0 14 6t6 14z m0 141v35q0 8-5 13t-13 5h-321q-8 0-13-5t-5-13v-35q0-8 5-13t13-5h321q8 0 13 5t5 13z m143 178v-678q0-37-26-63t-63-27h-197v54q0 8-5 13t-13 5h-35q-8 0-13-5t-5-13v-54h-429v54q0 8-5 13t-13 5h-35q-8 0-13-5t-5-13v-54h-197q-36 0-63 27t-26 63v678q0 37 26 63t63 27h965q36 0 63-27t26-63z" horiz-adv-x="1142.9" />

<glyph glyph-name="user-circle" unicode="&#xf2bd;" d="M850 103q-12 86-49 144t-103 66q-37-42-89-65t-109-23-109 23-89 65q-66-9-103-66t-49-144q59-84 151-133t199-49 199 49 151 133z m-136 390q0 89-62 151t-152 63-151-63-63-151 63-152 151-62 152 62 62 152z m286-143q0-102-40-194t-106-160-159-106-195-40q-102 0-194 40t-160 106-106 160-40 194 40 194 106 160 160 106 194 40 194-40 160-106 106-160 40-194z" horiz-adv-x="1000" />

<glyph glyph-name="id-badge" unicode="&#xf2c1;" d="M571 148q0-36-20-60t-51-24h-286q-30 0-50 24t-21 60 5 66 16 58 34 44 54 16q45-42 105-42t105 42q31 0 54-16t34-44 16-58 5-66z m-85 290q0-53-38-90t-91-37-90 37-38 90 38 89 90 37 91-37 38-89z m157-499v768h-572v-768q0-7 6-12t12-6h536q7 0 13 6t5 12z m71 822v-822q0-37-26-63t-63-26h-536q-36 0-63 26t-26 63v822q0 37 26 63t63 26h197v-54q0-7 5-12t13-5h107q8 0 13 5t5 12v54h196q37 0 63-26t26-63z" horiz-adv-x="714.3" />

<glyph glyph-name="window-maximize" unicode="&#xf2d0;" d="M143 64h714v429h-714v-429z m857 625v-678q0-37-26-63t-63-27h-822q-36 0-63 27t-26 63v678q0 37 26 63t63 27h822q37 0 63-27t26-63z" horiz-adv-x="1000" />

<glyph glyph-name="window-minimize" unicode="&#xf2d1;" d="M1000 118v-107q0-37-26-63t-63-27h-822q-36 0-63 27t-26 63v107q0 37 26 63t63 26h822q37 0 63-26t26-63z" horiz-adv-x="1000" />

<glyph glyph-name="window-restore" unicode="&#xf2d2;" d="M143-7h428v286h-428v-286z m571 286h286v428h-429v-143h54q37 0 63-26t26-63v-196z m429 482v-536q0-37-26-63t-63-26h-340v-197q0-37-26-63t-63-26h-536q-36 0-63 26t-26 63v536q0 37 26 63t63 26h340v197q0 37 26 63t63 26h536q36 0 63-26t26-63z" horiz-adv-x="1142.9" />

<glyph glyph-name="window-close" unicode="&#xf2d3;" d="M656 113l81 81q6 6 6 13t-6 13l-130 130 130 130q6 6 6 13t-6 13l-81 81q-6 6-13 6t-13-6l-130-130-130 130q-6 6-13 6t-13-6l-81-81q-6-6-6-13t6-13l130-130-130-130q-6-6-6-13t6-13l81-81q6-6 13-6t13 6l130 130 130-130q6-6 13-6t13 6z m344 576v-678q0-37-26-63t-63-27h-822q-36 0-63 27t-26 63v678q0 37 26 63t63 27h822q37 0 63-27t26-63z" horiz-adv-x="1000" />

<glyph glyph-name="calendar-1" unicode="&#xf4c5;" d="M0-31v761q0 37 26 62t62 26h762q36 0 61-26t26-62v-761q0-36-26-62t-61-26h-762q-36 0-62 26t-26 62z m88 0h762v527h-762v-527z m60 59v175h176v-175h-176z m0 234v176h176v-176h-176z m235-234v175h175v-175h-175z m0 234v176h175v-176h-175z m234-234v175h176v-175h-176z m0 234v176h176v-176h-176z" horiz-adv-x="937.5" />

<glyph glyph-name="lock-alt" unicode="&#xf510;" d="M0-30v393q0 14 10 24t25 9h45v149q0 55 20 104t56 88q36 38 85 60t104 21 104-21 84-60q37-38 57-88t20-104v-149h45q15 0 25-9t10-24v-393q0-13-8-19t-27-14q-10-5-35-12t-66-19-98-17-111-8q-155 0-310 56-17 5-26 13t-9 20z m206 426h278v149q0 63-42 108-42 42-97 42t-98-42q-41-44-41-108v-149z m28-334q0-11 9-20 8-8 19-8 12 0 20 8l63 63 63-63q7-8 19-8 11 0 20 8 8 9 8 20t-8 19l-63 63 63 63q8 8 8 20t-8 19-20 9-19-9l-63-63-63 63q-9 9-20 9t-19-9-9-19 9-20l63-63-63-63q-9-8-9-19z" horiz-adv-x="689.5" />

<glyph glyph-name="lock-1" unicode="&#xf512;" d="M0-30v393q0 15 10 25t24 10h46v148q0 54 20 104t56 87q36 39 85 60t104 21q54 0 103-21t85-60q36-38 56-87t20-104v-148h46q14 0 24-10t10-25v-393q0-7-3-12t-7-8-10-7-14-6q-19-8-53-18t-111-24-147-14q-151 0-310 56-16 6-25 13t-9 20z m206 428h277v148q0 63-42 107-40 42-96 43-58-1-98-43-41-44-41-107v-148z" horiz-adv-x="689" />

<glyph glyph-name="lock-open-1" unicode="&#xf513;" d="M32 359v187q0 54 19 104t55 87q36 39 84 60t101 21 102-21 83-60 55-87 20-104v-148h452q14 0 24-10t10-25v-393q0-9-5-15t-11-9-18-9q-11-5-35-12t-66-18-98-18-111-8q-155 0-310 56-17 6-26 13t-9 20v393q0 15 10 25t25 10h45v148q0 62-41 107-40 42-96 42-56 0-95-42-41-45-41-107v-46l-60-72h60v-69l-59-45z" horiz-adv-x="1068.8" />
</font>
</defs>
</svg>